<svg width="861" height="235" viewBox="0 0 861 235" fill="none" xmlns="http://www.w3.org/2000/svg">
<path d="M44.1687 183.798L2.5 228.637V2.5H858.5V183H46H44.9104L44.1687 183.798Z" fill="#6C2498" stroke="#491867" stroke-width="5"/>
</svg>
